<?xml version="1.0" encoding="UTF-8"?>
<session version="1.0">
<refactoring comment="Copy element &apos;help_screen.xml&apos; to &apos;help_screen.xml&apos;&#x0D;&#x0A;- Original project: &apos;MatchingGame&apos;&#x0D;&#x0A;- Destination element: &apos;help_screen.xml&apos;&#x0D;&#x0A;- Original element: &apos;help_screen.xml&apos;" description="Copy file" element1="res/layout/help_screen.xml" files="1" flags="589830" folders="0" id="org.eclipse.jdt.ui.copy" policy="org.eclipse.jdt.ui.copyResources" stamp="1418066639080" target="/MatchingGame/res/layout/help_screen.xml" units="0" version="1.0"/>
</session>